\select@language {russian}
\contentsline {section}{\numberline {1}\IeC {\CYRV }\IeC {\cyrv }\IeC {\cyre }\IeC {\cyrd }\IeC {\cyre }\IeC {\cyrn }\IeC {\cyri }\IeC {\cyre }}{3}
\contentsline {subsection}{\numberline {1.1}\IeC {\CYRO }\IeC {\cyrp }\IeC {\cyrr }\IeC {\cyre }\IeC {\cyrd }\IeC {\cyre }\IeC {\cyrl }\IeC {\cyre }\IeC {\cyrn }\IeC {\cyri }\IeC {\cyrya } \IeC {\cyri }~\IeC {\cyro }\IeC {\cyrb }\IeC {\cyro }\IeC {\cyrz }\IeC {\cyrn }\IeC {\cyra }\IeC {\cyrch }\IeC {\cyre }\IeC {\cyrn }\IeC {\cyri }\IeC {\cyrya }}{3}
\contentsline {subsection}{\numberline {1.2}\IeC {\CYRO }\IeC {\cyrb }\IeC {\cyrz }\IeC {\cyro }\IeC {\cyrr } \IeC {\cyrl }\IeC {\cyri }\IeC {\cyrt }\IeC {\cyre }\IeC {\cyrr }\IeC {\cyra }\IeC {\cyrt }\IeC {\cyru }\IeC {\cyrr }\IeC {\cyrery }}{4}
\contentsline {section}{\numberline {2}\IeC {\CYRN }\IeC {\cyro }\IeC {\cyrv }\IeC {\cyrery }\IeC {\cyre } \IeC {\cyrp }\IeC {\cyro }\IeC {\cyrd }\IeC {\cyrh }\IeC {\cyro }\IeC {\cyrd }\IeC {\cyrery } \IeC {\cyri }~\IeC {\cyrr }\IeC {\cyre }\IeC {\cyrz }\IeC {\cyru }\IeC {\cyrl }\IeC {\cyrsftsn }\IeC {\cyrt }\IeC {\cyra }\IeC {\cyrt }\IeC {\cyrery }}{4}
\contentsline {section}{\numberline {3}\IeC {\CYRV }\IeC {\cyrery }\IeC {\cyrch }\IeC {\cyri }\IeC {\cyrs }\IeC {\cyrl }\IeC {\cyri }\IeC {\cyrt }\IeC {\cyre }\IeC {\cyrl }\IeC {\cyrsftsn }\IeC {\cyrn }\IeC {\cyrery }\IeC {\cyre } \IeC {\cyrerev }\IeC {\cyrk }\IeC {\cyrs }\IeC {\cyrp }\IeC {\cyre }\IeC {\cyrr }\IeC {\cyri }\IeC {\cyrm }\IeC {\cyre }\IeC {\cyrn }\IeC {\cyrt }\IeC {\cyrery }}{4}
\contentsline {subsection}{\numberline {3.1}\IeC {\CYRI }\IeC {\cyrs }\IeC {\cyrh }\IeC {\cyro }\IeC {\cyrd }\IeC {\cyrn }\IeC {\cyrery }\IeC {\cyre } \IeC {\cyrd }\IeC {\cyra }\IeC {\cyrn }\IeC {\cyrn }\IeC {\cyrery }\IeC {\cyre } \IeC {\cyri }~\IeC {\cyru }\IeC {\cyrs }\IeC {\cyrl }\IeC {\cyro }\IeC {\cyrv }\IeC {\cyri }\IeC {\cyrya } \IeC {\cyrerev }\IeC {\cyrk }\IeC {\cyrs }\IeC {\cyrp }\IeC {\cyre }\IeC {\cyrr }\IeC {\cyri }\IeC {\cyrm }\IeC {\cyre }\IeC {\cyrn }\IeC {\cyrt }\IeC {\cyra }}{5}
\contentsline {subsection}{\numberline {3.2}\IeC {\CYRR }\IeC {\cyre }\IeC {\cyrz }\IeC {\cyru }\IeC {\cyrl }\IeC {\cyrsftsn }\IeC {\cyrt }\IeC {\cyra }\IeC {\cyrt }\IeC {\cyrery } \IeC {\cyrerev }\IeC {\cyrk }\IeC {\cyrs }\IeC {\cyrp }\IeC {\cyre }\IeC {\cyrr }\IeC {\cyri }\IeC {\cyrm }\IeC {\cyre }\IeC {\cyrn }\IeC {\cyrt }\IeC {\cyra }}{5}
\contentsline {subsection}{\numberline {3.3}\IeC {\CYRO }\IeC {\cyrb }\IeC {\cyrs }\IeC {\cyru }\IeC {\cyrzh }\IeC {\cyrd }\IeC {\cyre }\IeC {\cyrn }\IeC {\cyri }\IeC {\cyre } \IeC {\cyri }~\IeC {\cyrv }\IeC {\cyrery }\IeC {\cyrv }\IeC {\cyro }\IeC {\cyrd }\IeC {\cyrery }}{5}
\contentsline {section}{\numberline {4}\IeC {\CYRZ }\IeC {\cyra }\IeC {\cyrk }\IeC {\cyrl }\IeC {\cyryu }\IeC {\cyrch }\IeC {\cyre }\IeC {\cyrn }\IeC {\cyri }\IeC {\cyre }}{5}
\contentsline {section}{\IeC {\CYRS }\IeC {\cyrp }\IeC {\cyri }\IeC {\cyrs }\IeC {\cyro }\IeC {\cyrk } \IeC {\cyrl }\IeC {\cyri }\IeC {\cyrt }\IeC {\cyre }\IeC {\cyrr }\IeC {\cyra }\IeC {\cyrt }\IeC {\cyru }\IeC {\cyrr }\IeC {\cyrery }}{7}
